gene ID,KOG annotation
DAPPUDRAFT_233749,Glutathione peroxidase
DAPPUDRAFT_310184,Non voltage-gated ion channels (DEG/ENaC family)
DAPPUDRAFT_91992,Defense-related protein containing SCP domain
DAPPUDRAFT_127554,Corticosteroid 11-beta-dehydrogenase and related short chain-type dehydrogenases
DAPPUDRAFT_301892,Uncharacterized conserved protein
DAPPUDRAFT_240755,"Speckle-type POZ protein SPOP and related proteins with TRAF, MATH and BTB/POZ domains"
DAPPUDRAFT_317639,FOG: Zn-finger
DAPPUDRAFT_34773,"Transcription factor, contains HOX domain"
DAPPUDRAFT_243679,Galactosyltransferases
DAPPUDRAFT_319687,C-4 sterol methyl oxidase
DAPPUDRAFT_246684,"Alpha-1,4-N-acetylglucosaminyltransferase"
DAPPUDRAFT_36257,"Succinate dehydrogenase, cytochrome b subunit"
DAPPUDRAFT_253741,Fucosyltransferase
DAPPUDRAFT_254204,FOG: Low-complexity
DAPPUDRAFT_258496,Predicted regulator of the ubiquitin pathway (contains UAS and UBX domains)
DAPPUDRAFT_330627,"Alpha-1,4-N-acetylglucosaminyltransferase"
DAPPUDRAFT_116484,Transcription factor BarH and related HOX domain proteins
DAPPUDRAFT_65605,AAA+-type ATPase containing the peptidase M41 domain
DAPPUDRAFT_9275,Transcription elongation factor SPT6
DAPPUDRAFT_67538,AAA+-type ATPase containing the peptidase M41 domain
DAPPUDRAFT_67548,Nerve growth factor receptor TRKA and related tyrosine kinases
DAPPUDRAFT_121053,Vigilin
DAPPUDRAFT_70221,Isoleucyl-tRNA synthetase
DAPPUDRAFT_232634,"Protein tyrosine phosphatase, contains fn3 domain"
DAPPUDRAFT_313063,"RNA polymerase II, large subunit"
DAPPUDRAFT_313603,Glutamate-gated kainate-type ion channel receptor subunit GluR5 and related subunits
DAPPUDRAFT_240701,"Speckle-type POZ protein SPOP and related proteins with TRAF, MATH and BTB/POZ domains"
DAPPUDRAFT_241138,Neurexin IV
DAPPUDRAFT_7210,Fibroblast/platelet-derived growth factor receptor and related receptor tyrosine kinases
DAPPUDRAFT_318667,Nuclear localization sequence binding protein
DAPPUDRAFT_320529,Acyl-CoA synthetase
DAPPUDRAFT_225455,FOG: Ankyrin repeat
DAPPUDRAFT_55379,FOG: Zn-finger
DAPPUDRAFT_328029,Predicted histone tail methylase containing SET domain
DAPPUDRAFT_274018,Predicted E3 ubiquitin ligase
DAPPUDRAFT_232066,Rab6 GTPase-interacting protein involved in endosome-to-TGN transport
DAPPUDRAFT_232164,"Focal adhesion tyrosine kinase FAK, contains FERM domain"
DAPPUDRAFT_232167,Insulin/growth factor receptor (contains protein kinase domain)
DAPPUDRAFT_232192,"Focal adhesion tyrosine kinase FAK, contains FERM domain"
DAPPUDRAFT_39520,"Natriuretic peptide receptor, guanylate cyclase"
DAPPUDRAFT_186925,Conserved ATP/GTP binding protein
DAPPUDRAFT_220078,FOG: Hormone receptors
DAPPUDRAFT_309859,"Focal adhesion tyrosine kinase FAK, contains FERM domain"
DAPPUDRAFT_232555,Uncharacterized conserved protein
DAPPUDRAFT_95243,"Sister chromatid cohesion complex Cohesin, subunit STAG/IRR1/SCC3"
DAPPUDRAFT_310675,Cytoskeleton-associated protein and related proteins
DAPPUDRAFT_95279,HMG box-containing protein
DAPPUDRAFT_41349,Karyopherin (importin) alpha
DAPPUDRAFT_206137,Uncharacterized conserved protein
DAPPUDRAFT_37508,Transcription factor of the Forkhead/HNF3 family
DAPPUDRAFT_299643,Catalytic subunit of the meiotic double strand break transesterase
DAPPUDRAFT_233912,"beta-1,6-N-acetylglucosaminyltransferase, contains WSC domain"
DAPPUDRAFT_95996,Transcriptional coactivator p100
DAPPUDRAFT_42666,FOG: Zn-finger
DAPPUDRAFT_311770,Tandem pore domain K+ channel
DAPPUDRAFT_96956,Protein tyrosine phosphatase CDC14
DAPPUDRAFT_235589,Histone 2A
DAPPUDRAFT_235633,Histone 2A
DAPPUDRAFT_235635,Histone 2A
DAPPUDRAFT_235673,Tyrosine kinase specific for activated (GTP-bound) p21cdc42Hs
DAPPUDRAFT_235770,Histone 2A
DAPPUDRAFT_235799,Histone 2A
DAPPUDRAFT_97781,F-box protein containing LRR
DAPPUDRAFT_98293,Chitinase
DAPPUDRAFT_237349,Low-density lipoprotein receptors containing Ca2+-binding EGF-like domains
DAPPUDRAFT_314639,"mRNA cleavage and polyadenylation factor IA/II complex, subunit CLP1"
DAPPUDRAFT_300755,DNA repair protein RAD51/RHP55
DAPPUDRAFT_314447,Ubiquitin fusion degradation protein-2
DAPPUDRAFT_239138,"Leucine rich repeat proteins, some proteins contain F-box"
DAPPUDRAFT_194683,Galactosyltransferases
DAPPUDRAFT_47993,Uncharacterized conserved protein
DAPPUDRAFT_315514,Fucosyltransferase
DAPPUDRAFT_100371,"Nuclear 5'-3' exoribonuclease-interacting protein, Rai1p"
DAPPUDRAFT_47834,"Nuclear 5'-3' exoribonuclease-interacting protein, Rai1p"
DAPPUDRAFT_240595,AAA+-type ATPase
DAPPUDRAFT_240596,AAA+-type ATPase
DAPPUDRAFT_48480,AAA+-type ATPase
DAPPUDRAFT_101154,Rab6 GTPase-interacting protein involved in endosome-to-TGN transport
DAPPUDRAFT_36213,FOG: Hormone receptors
DAPPUDRAFT_210586,Fatty acid desaturase
DAPPUDRAFT_303428,"Speckle-type POZ protein SPOP and related proteins with TRAF, MATH and BTB/POZ domains"
DAPPUDRAFT_302864,Myosin class II heavy chain
DAPPUDRAFT_49525,Predicted hydrolase involved in interstrand cross-link repair
DAPPUDRAFT_241519,"Dyneins, heavy chain"
DAPPUDRAFT_242072,Axonemal dynein light chain
DAPPUDRAFT_102626,Predicted membrane protein
DAPPUDRAFT_318294,G protein-coupled receptor
DAPPUDRAFT_52155,Fucosyltransferase
DAPPUDRAFT_52273,Cyclin T-dependent kinase CDK9
DAPPUDRAFT_244863,Programmed cell death 8 (apoptosis-inducing factor)
DAPPUDRAFT_304883,Acyl-CoA reductase
DAPPUDRAFT_244402,Rab6 GTPase-interacting protein involved in endosome-to-TGN transport
DAPPUDRAFT_51872,Sodium/hydrogen exchanger protein
DAPPUDRAFT_224982,Ras-related GTPase
DAPPUDRAFT_105300,"Serine/threonine protein kinase and endoribonuclease ERN1/IRE1, sensor of the unfolded protein response pathway"
DAPPUDRAFT_305250,Trypsin
DAPPUDRAFT_104548,FOG: RCC1 domain
DAPPUDRAFT_7005,Molecular chaperone (DnaJ superfamily)
DAPPUDRAFT_6620,Predicted methyltransferase
DAPPUDRAFT_246066,Glutamate-gated kainate-type ion channel receptor subunit GluR5 and related subunits
DAPPUDRAFT_106304,Na+:iodide/myo-inositol/multivitamin symporters
DAPPUDRAFT_24169,5'-3' exonuclease HKE1/RAT1
DAPPUDRAFT_248090,"Chaperonin complex component, TCP-1 gamma subunit (CCT3)"
DAPPUDRAFT_32853,"beta-1,6-N-acetylglucosaminyltransferase, contains WSC domain"
DAPPUDRAFT_249021,"RNA polymerase II, large subunit"
DAPPUDRAFT_55475,Kinesin-like protein
DAPPUDRAFT_16992,"Speckle-type POZ protein SPOP and related proteins with TRAF, MATH and BTB/POZ domains"
DAPPUDRAFT_249621,Peroxisomal phytanoyl-CoA hydroxylase
DAPPUDRAFT_32444,Metalloendopeptidase family - mitochondrial intermediate peptidase
DAPPUDRAFT_4083,Fucosyltransferase
DAPPUDRAFT_251812,"Inositol 1,4,5-trisphosphate receptor"
DAPPUDRAFT_324296,Fatty acyl-CoA elongase/Polyunsaturated fatty acid specific elongation enzyme
DAPPUDRAFT_108889,Uncharacterized conserved protein
DAPPUDRAFT_199715,"RNA polymerase III, subunit C34"
DAPPUDRAFT_252872,Sodium-neurotransmitter symporter
DAPPUDRAFT_57970,Predicted Golgi transport complex 1 protein
DAPPUDRAFT_59577,Ligand-gated ion channel
DAPPUDRAFT_326060,Monocarboxylate transporter
DAPPUDRAFT_110891,Uncharacterized conserved protein
DAPPUDRAFT_31218,Predicted DNA damage inducible protein
DAPPUDRAFT_300640,"Mitochondrial inner membrane protease, subunit IMP1"
DAPPUDRAFT_257842,Programmed cell death 8 (apoptosis-inducing factor)
DAPPUDRAFT_327799,Basement membrane-specific heparan sulfate proteoglycan (HSPG) core protein
DAPPUDRAFT_257054,"Notch signaling protein Neuralized, Nuez domain"
DAPPUDRAFT_328283,"Multidrug resistance-associated protein/mitoxantrone resistance protein, ABC superfamily"
DAPPUDRAFT_60971,"Dystonin, GAS (Growth-arrest-specific protein), and related proteins"
DAPPUDRAFT_328693,"IkappaB kinase complex, IKAP component"
DAPPUDRAFT_62162,Uncharacterized conserved protein
DAPPUDRAFT_228756,Prolyl 4-hydroxylase alpha subunit
DAPPUDRAFT_17020,Transcription factor NeuroD and related HTH proteins
DAPPUDRAFT_329065,Uncharacterized conserved protein
DAPPUDRAFT_114609,"Serine/threonine protein kinase and endoribonuclease ERN1/IRE1, sensor of the unfolded protein response pathway"
DAPPUDRAFT_114575,Acyl-CoA reductase
DAPPUDRAFT_330591,Uncharacterized conserved protein
DAPPUDRAFT_331038,Beta-TrCP (transducin repeats containing)/Slimb proteins
DAPPUDRAFT_330728,C-type lectin
DAPPUDRAFT_35190,Predicted methyltransferase
DAPPUDRAFT_263959,"Ferric reductase, NADH/NADPH oxidase and related proteins"
DAPPUDRAFT_263962,"Ferric reductase, NADH/NADPH oxidase and related proteins"
DAPPUDRAFT_332857,Synaptic vesicle transporter SVOP and related transporters (major facilitator superfamily)
DAPPUDRAFT_117869,M13 family peptidase
DAPPUDRAFT_334695,"Putative transcription factor HALR/MLL3, involved in embryonic development"
DAPPUDRAFT_333910,"Global transcriptional regulator, cell division control protein"
DAPPUDRAFT_266093,Protein kinase
DAPPUDRAFT_335122,Predicted regulator of the ubiquitin pathway (contains UAS and UBX domains)
DAPPUDRAFT_305196,Predicted N6-adenine RNA methylase
DAPPUDRAFT_66309,Fucosyltransferase
DAPPUDRAFT_334828,Low-density lipoprotein receptors containing Ca2+-binding EGF-like domains
DAPPUDRAFT_119008,Beta-tubulin folding cofactor D
DAPPUDRAFT_6213,Serine/threonine protein kinase
DAPPUDRAFT_66536,"Actin-binding protein Coronin, contains WD40 repeats"
DAPPUDRAFT_8016,Molecular chaperone (HSP90 family)
DAPPUDRAFT_335795,Threonine aldolase
DAPPUDRAFT_336203,Host cell transcription factor HCFC1
DAPPUDRAFT_67965,Sulfate/bicarbonate/oxalate exchanger SAT-1 and related transporters (SLC26 family)
DAPPUDRAFT_335858,WD40-repeat-containing subunit of the 18S rRNA processing complex
DAPPUDRAFT_270228,RNA polymerase III transcription factor TFIIIC
DAPPUDRAFT_120246,Dual specificity; serine/threonine and tyrosine kinase
DAPPUDRAFT_68235,Uncharacterized conserved protein
DAPPUDRAFT_337747,Transcriptional coactivator p100
DAPPUDRAFT_17778,Uncharacterized conserved protein
DAPPUDRAFT_273773,Molecular chaperone (HSP90 family)
DAPPUDRAFT_273956,"Ferric reductase, NADH/NADPH oxidase and related proteins"
DAPPUDRAFT_70078,FOG: Immunoglobulin C-2 Type/fibronectin type III domains
DAPPUDRAFT_274377,WD40 repeat protein
DAPPUDRAFT_70163,"RNA polymerase II, large subunit"
DAPPUDRAFT_70250,Molecular chaperone (HSP90 family)
DAPPUDRAFT_70392,Mitochondrial ATP-dependent protease PIM1/LON
DAPPUDRAFT_341241,"mRNA capping enzyme, guanylyltransferase (alpha) subunit"
DAPPUDRAFT_342412,FOG: RRM domain
DAPPUDRAFT_9799,RNA pseudouridylate synthases
DAPPUDRAFT_41198,"Transcription factor, contains HOX domain"
DAPPUDRAFT_41051,Transcription factor of the Forkhead/HNF3 family
DAPPUDRAFT_41289,Globins and related hemoproteins
DAPPUDRAFT_94960,"U2 snRNP splicing factor, small subunit, and related proteins"
DAPPUDRAFT_305416,Defense-related protein containing SCP domain
DAPPUDRAFT_96630,Uncharacterized conserved protein
DAPPUDRAFT_17962,FOG: Leucine rich repeat
DAPPUDRAFT_43649,Histone H4
DAPPUDRAFT_235971,Histone H4
DAPPUDRAFT_44455,Transcription factor BarH and related HOX domain proteins
DAPPUDRAFT_25304,"DNA replication licensing factor, MCM7 component"
DAPPUDRAFT_313490,TRAPP 20 K subunit
DAPPUDRAFT_99410,Cytoplasmic dynein intermediate chain
DAPPUDRAFT_314645,Queuine-tRNA ribosyltransferase
DAPPUDRAFT_237749,Fasciclin and related adhesion glycoproteins
DAPPUDRAFT_313968,Calcium/calmodulin-dependent serine protein kinase/membrane-associated guanylate kinase
DAPPUDRAFT_237834,"beta-1,6-N-acetylglucosaminyltransferase, contains WSC domain"
DAPPUDRAFT_237866,SWI-SNF chromatin-remodeling complex protein
DAPPUDRAFT_238038,Phosphatidylinositol transfer protein SEC14 and related proteins
DAPPUDRAFT_223150,FOG: RRM domain
DAPPUDRAFT_48108,Transcription factor NeuroD and related HTH proteins
DAPPUDRAFT_48503,Ubiquitin/60s ribosomal protein L40 fusion
DAPPUDRAFT_240482,Tyrosine kinase specific for activated (GTP-bound) p21cdc42Hs
DAPPUDRAFT_240559,G protein-coupled receptors
DAPPUDRAFT_223576,"Serine/threonine protein kinase and endoribonuclease ERN1/IRE1, sensor of the unfolded protein response pathway"
DAPPUDRAFT_316370,Neurexin IV
DAPPUDRAFT_317023,Uncharacterized conserved protein
DAPPUDRAFT_317026,Multicopper oxidases
DAPPUDRAFT_299731,FOG: 7 transmembrane receptor
DAPPUDRAFT_316623,FOG: 7 transmembrane receptor
DAPPUDRAFT_316914,Predicted E3 ubiquitin ligase
DAPPUDRAFT_316918,Predicted E3 ubiquitin ligase
DAPPUDRAFT_49162,Trypsin
DAPPUDRAFT_317313,UDP-glucuronosyl and UDP-glucosyl transferase
DAPPUDRAFT_4362,"Phosphatidylserine-specific receptor PtdSerR, contains JmjC domain"
DAPPUDRAFT_299736,FOG: Hormone receptors
DAPPUDRAFT_102823,FOG: Ankyrin repeat
DAPPUDRAFT_304085,"Predicted membrane protein, contains DoH and Cytochrome b-561/ferric reductase transmembrane domains"
DAPPUDRAFT_52316,Predicted RNA-binding protein containing PIN domain and invovled in translation or RNA processing
DAPPUDRAFT_104194,Molecular chaperone (HSP90 family)
DAPPUDRAFT_320536,Trypsin
DAPPUDRAFT_246435,"Serine/threonine protein kinase and endoribonuclease ERN1/IRE1, sensor of the unfolded protein response pathway"
DAPPUDRAFT_246635,C-type lectin
DAPPUDRAFT_4209,Ras-related GTPase
DAPPUDRAFT_319989,Trypsin
DAPPUDRAFT_104936,Beta-TrCP (transducin repeats containing)/Slimb proteins
DAPPUDRAFT_53297,Transcription factor BarH and related HOX domain proteins
DAPPUDRAFT_105863,FOG: Zn-finger
DAPPUDRAFT_106920,Neurexin IV
DAPPUDRAFT_249078,Nuclear receptor
DAPPUDRAFT_249079,Transcription factor BarH and related HOX domain proteins
DAPPUDRAFT_107323,Glutamate-gated kainate-type ion channel receptor subunit GluR5 and related subunits
DAPPUDRAFT_323274,"Nuclear receptor coregulator SMRT/SMRTER, contains Myb-like domains"
DAPPUDRAFT_107858,FOG: 7 transmembrane receptor
DAPPUDRAFT_252775,Cysteine desulfurase NFS1
DAPPUDRAFT_18302,Trypsin
DAPPUDRAFT_324383,von Willebrand factor and related coagulation proteins
DAPPUDRAFT_324526,Cytoplasmic dynein intermediate chain
DAPPUDRAFT_56664,FOG: 7 transmembrane receptor
DAPPUDRAFT_324649,"RNA polymerase II, large subunit"
DAPPUDRAFT_58195,"Serine/threonine protein kinase and endoribonuclease ERN1/IRE1, sensor of the unfolded protein response pathway"
DAPPUDRAFT_109440,Beta-transducin family (WD-40 repeat) protein
DAPPUDRAFT_111894,Non voltage-gated ion channels (DEG/ENaC family)
DAPPUDRAFT_215844,G protein signaling regulators
DAPPUDRAFT_254140,Low-density lipoprotein receptors containing Ca2+-binding EGF-like domains
DAPPUDRAFT_58666,FOG: 7 transmembrane receptor
DAPPUDRAFT_308239,Predicted glycosyltransferase
DAPPUDRAFT_326357,Glutamate-gated kainate-type ion channel receptor subunit GluR5 and related subunits
DAPPUDRAFT_326243,Peroxidase/oxygenase
DAPPUDRAFT_256146,"Proteins containing BTB/POZ and Kelch domains, involved in regulatory/signal transduction processes"
DAPPUDRAFT_256430,FOG: 7 transmembrane receptor
DAPPUDRAFT_60871,"GTPase Rab11/YPT3, small G protein superfamily"
DAPPUDRAFT_29202,"Transcription factor, contains HOX domain"
DAPPUDRAFT_228400,"Uncharacterized conserved protein, contains DM10 domain"
DAPPUDRAFT_257996,Uncharacterized conserved protein
DAPPUDRAFT_259222,Fibroblast/platelet-derived growth factor receptor and related receptor tyrosine kinases
DAPPUDRAFT_62315,"GTPase Rab6/YPT6/Ryh1, small G protein superfamily"
DAPPUDRAFT_62565,"Transcription factor, contains HOX domain"
DAPPUDRAFT_329758,Lysosomal trafficking regulator LYST and related BEACH and WD40 repeat proteins
DAPPUDRAFT_63029,Serpin
DAPPUDRAFT_62990,Phosphatidylinositol transfer protein SEC14 and related proteins
DAPPUDRAFT_260908,Xanthine dehydrogenase
DAPPUDRAFT_114730,Sister chromatid cohesion protein SCC2/Nipped-B
DAPPUDRAFT_114901,Nucleolar GTPase/ATPase p130
DAPPUDRAFT_63609,"Alpha-1,4-N-acetylglucosaminyltransferase"
DAPPUDRAFT_260953,"Collagens (type IV and type XIII), and related proteins"
DAPPUDRAFT_261186,"Scaffold/matrix specific factor hnRNP-U/SAF-A, contains SPRY domain"
DAPPUDRAFT_115883,Ankyrin
DAPPUDRAFT_331405,Ankyrin
DAPPUDRAFT_331186,FOG: TPR repeat
DAPPUDRAFT_64409,Fucosyltransferase
DAPPUDRAFT_331792,eIF-2alpha kinase PEK/EIF2AK3
DAPPUDRAFT_263790,Beta-tubulin folding cofactor D
DAPPUDRAFT_332957,Trypsin
DAPPUDRAFT_333354,Beta-glucocerebrosidase
DAPPUDRAFT_118064,Transcription factor CHX10 and related HOX domain proteins
DAPPUDRAFT_19266,Aromatic-L-amino-acid/L-histidine decarboxylase
DAPPUDRAFT_66598,Protein tyrosine phosphatase
DAPPUDRAFT_118333,Insulin/growth factor receptor (contains protein kinase domain)
DAPPUDRAFT_118500,Predicted E3 ubiquitin ligase
DAPPUDRAFT_268086,Sulfotransferase
DAPPUDRAFT_66944,Transcription factor HAND2/Transcription factor TAL1/TAL2/LYL1
DAPPUDRAFT_336744,Tandem pore domain K+ channel
DAPPUDRAFT_270543,"Lipid exporter ABCA1 and related proteins, ABC superfamily"
DAPPUDRAFT_17903,Insulin/growth factor receptor (contains protein kinase domain)
DAPPUDRAFT_337741,Uncharacterized conserved protein
DAPPUDRAFT_271917,"Inositol 1,4,5-trisphosphate receptor"
DAPPUDRAFT_69045,FOG: 7 transmembrane receptor
DAPPUDRAFT_314855,"Lipid exporter ABCA1 and related proteins, ABC superfamily"
DAPPUDRAFT_300433,Phosphatidylinositol transfer protein SEC14 and related proteins
DAPPUDRAFT_117474,Translational repressor Pumilio/PUF3 and related RNA-binding proteins (Puf superfamily)
DAPPUDRAFT_41601,Fucosyltransferase
DAPPUDRAFT_239330,Cysteine proteinase Cathepsin L
DAPPUDRAFT_302604,Trypsin
DAPPUDRAFT_53488,Meprin A metalloprotease
DAPPUDRAFT_198878,Fucosyltransferase
DAPPUDRAFT_325131,FOG: RRM domain
DAPPUDRAFT_15616,Low-density lipoprotein receptors containing Ca2+-binding EGF-like domains
DAPPUDRAFT_71282,Adenylate/guanylate cyclase
