Treatment,Phosphorus,Nitrogen,Food,Calcium,Cyanobact.
Calcium,-0.515272747,-0.667052346,0.439696865,-2.086942157,-0.439696865
Calcium,-0.515272747,-0.667052346,0.439696865,-2.086942157,-0.439696865
Calcium,-0.515272747,-0.667052346,0.439696865,-2.086942157,-0.439696865
Calcium,-0.515272747,-0.667052346,0.439696865,-2.086942157,-0.439696865
Calcium,-0.515272747,-0.667052346,0.439696865,-2.086942157,-0.439696865
Fast growth,-0.494608734,-0.378169009,0.439696865,0.832216198,-0.439696865
Fast growth,-0.494608734,-0.378169009,0.439696865,0.832216198,-0.439696865
Fast growth,-0.494608734,-0.378169009,0.439696865,0.832216198,-0.439696865
Fast growth,-0.494608734,-0.378169009,0.439696865,0.832216198,-0.439696865
Fast growth,-0.494608734,-0.378169009,0.439696865,0.832216198,-0.439696865
Cyanobact.,-0.285198011,-0.465931035,0.439696865,0.140836587,2.198484326
Cyanobact.,-0.285198011,-0.465931035,0.439696865,0.140836587,2.198484326
Cyanobact.,-0.285198011,-0.465931035,0.439696865,0.140836587,2.198484326
Cyanobact.,-0.285198011,-0.465931035,0.439696865,0.140836587,2.198484326
Cyanobact.,-0.285198011,-0.465931035,0.439696865,0.140836587,2.198484326
Food,-0.484623051,-0.233727341,-2.198484326,0.140836587,-0.439696865
Food,-0.484623051,-0.233727341,-2.198484326,0.140836587,-0.439696865
Food,-0.484623051,-0.233727341,-2.198484326,0.140836587,-0.439696865
Food,-0.484623051,-0.233727341,-2.198484326,0.140836587,-0.439696865
Food,-0.484623051,-0.233727341,-2.198484326,0.140836587,-0.439696865
Nitrogen,-0.412068123,2.179728382,0.439696865,0.832216198,-0.439696865
Nitrogen,-0.412068123,2.179728382,0.439696865,0.832216198,-0.439696865
Nitrogen,-0.412068123,2.179728382,0.439696865,0.832216198,-0.439696865
Nitrogen,-0.412068123,2.179728382,0.439696865,0.832216198,-0.439696865
Nitrogen,-0.412068123,2.179728382,0.439696865,0.832216198,-0.439696865
Phosphorus,2.191770666,-0.434848651,0.439696865,0.140836587,-0.439696865
Phosphorus,2.191770666,-0.434848651,0.439696865,0.140836587,-0.439696865
Phosphorus,2.191770666,-0.434848651,0.439696865,0.140836587,-0.439696865
Phosphorus,2.191770666,-0.434848651,0.439696865,0.140836587,-0.439696865
Phosphorus,2.191770666,-0.434848651,0.439696865,0.140836587,-0.439696865
